C:\Users\Hamza\IdeaProjects\totp_tp\src\main\java\models\User.java
C:\Users\Hamza\IdeaProjects\totp_tp\src\main\java\configuration\BeanPrinterConfig.java
C:\Users\Hamza\IdeaProjects\totp_tp\src\main\java\service\RegisterService.java
C:\Users\Hamza\IdeaProjects\totp_tp\src\main\java\SpringTotpApplication.java
C:\Users\Hamza\IdeaProjects\totp_tp\src\main\java\service\RandomKeyGenerator.java
C:\Users\Hamza\IdeaProjects\totp_tp\src\main\java\data\UserRepository.java
C:\Users\Hamza\IdeaProjects\totp_tp\src\main\java\service\TotpGenerator.java
C:\Users\Hamza\IdeaProjects\totp_tp\src\main\java\SpringRun.java
C:\Users\Hamza\IdeaProjects\totp_tp\src\main\java\service\LoginService.java
